1,100,5845.4,4362.4
2,100,5970.4,4427.4
3,100,5627.7,4430.1
4,100,5736.6,4436.4
5,100,5846.4,4471.2
6,100,5786.3,4482.4
7,100,5605.5,4504.1
8,100,5836.1,4563.1
9,100,5690.7,4626.6
10,100,5550.1,4665.1
11,100,5917.3,4661.7
12,100,5622.9,4671.4
13,100,5511.8,4699.1
14,100,5705.7,4732.4
15,100,5633.9,4750.1
16,100,5482.3,4756.1
17,100,5539.8,4760.7
18,100,5878.7,4769.4
19,100,6048.3,4771.7
20,100,5189.5,4778.4
21,100,5760.4,4783.0
22,100,5935.9,4812.0
23,100,5694.6,4824.1
24,100,6004.9,4824.2
25,100,5525.1,4850.0
26,100,5679.1,4915.4
27,100,5517.7,4960.0
28,100,5453.4,5020.9
29,100,4870.4,5053.2
30,100,5154.6,5058.8
31,100,5054.3,5075.8
32,100,5028.5,5092.4
33,100,4773.5,5187.8
34,100,4597.2,5375.4
35,100,4474.2,5391.3
36,100,4546.9,5400.6
37,100,4842.7,5409.3
38,100,4901.1,5450.4
39,100,4982.8,5459.4
40,100,4836.0,5459.9
41,100,5070.5,5458.8
42,100,4781.2,5460.9
43,100,5138.3,5499.1
44,100,4742.6,5505.7
45,100,5238.4,5505.2
46,100,4819.1,5521.8
47,100,4666.6,5559.9
48,100,4940.6,5565.9
49,100,4771.7,5571.7
50,100,4873.9,5580.6
51,100,4729.8,5591.1
52,100,5943.0,5598.6
53,100,5853.3,5601.1
54,100,4669.4,5609.1
55,100,5709.1,5615.3
56,100,4935.1,5636.1
57,100,5779.7,5646.9
58,100,5655.9,5650.6
59,100,5891.5,5664.1
60,100,5729.8,5665.8
61,100,5592.5,5681.1
62,100,5845.1,5692.7
63,100,5509.9,5705.0
64,100,5771.6,5724.2
65,100,5586.2,5728.0
66,100,5475.8,5746.2
67,100,5568.1,5782.7
68,100,5844.6,5799.2
69,100,5915.8,5828.7
70,100,5729.4,5845.8
71,100,5665.5,5850.2
72,100,5875.3,5858.4
73,100,5825.7,5864.6
74,100,5521.9,5884.9
75,100,5917.7,5898.9
76,100,6024.6,5919.6
77,100,5398.3,5922.4
78,100,5459.0,5950.3
79,100,5922.4,5955.7
80,100,5569.7,5958.9
81,100,5358.1,5977.4
82,100,5440.2,6022.7
83,100,5521.6,6024.1
84,100,5369.5,6028.9
85,100,5595.3,4862.4
86,100,6013.2,4879.3
87,100,4446.9,4884.3
88,100,4366.7,4884.9
89,100,4662.3,4928.2
90,100,4304.4,4941.7
91,100,4402.5,4951.8
92,100,4239.5,4952.3
93,100,4346.8,4980.6
94,100,5127.0,5011.6
95,100,4447.7,5019.2
96,100,5074.6,5031.8
97,100,4946.8,5072.6
98,100,4994.9,5068.5
99,100,4373.1,5091.5
100,100,4979.5,5105.9
101,100,5098.5,5102.2
102,100,4402.8,5196.1
103,100,5643.2,5267.6
104,100,5558.4,5274.1
105,100,5255.5,5283.4
106,100,5533.6,5302.9
107,100,5641.0,5321.5
108,100,5399.0,5344.6
109,100,5871.9,5337.0
110,100,5467.6,5344.9
111,100,5563.2,5383.4
112,100,5642.4,5382.9
113,100,4816.1,5864.1
114,100,4845.6,5918.0
115,100,4875.7,5987.7
116,100,4810.9,6005.3
117,100,4719.8,4137.5
118,100,4316.3,4228.1
119,100,4945.0,4251.1
120,100,4421.6,4275.0
121,100,4259.3,4273.4
122,100,4311.7,4322.3
123,100,4501.7,4357.0
124,100,4927.2,4394.0
125,100,4599.9,4408.0
126,100,4991.6,4415.8
127,100,4461.9,4443.8
128,100,4733.4,4486.8
129,100,4935.9,4498.7
130,100,4639.6,4497.9
131,100,5093.0,4548.1
132,100,4775.8,4545.2
133,100,4572.5,4556.6
134,100,4714.6,4564.8
135,100,4816.4,4571.9
136,100,5201.3,4571.9
137,100,4887.2,4568.0
138,100,4617.1,4573.2
139,100,4947.0,4580.5
140,100,4729.2,4599.8
141,100,4664.8,4610.6
142,100,4823.0,4617.2
143,100,4986.0,4620.4
144,100,5266.7,4650.0
145,100,4911.9,4650.8
146,100,4799.1,4658.2
147,100,4620.2,4658.1
148,100,4712.3,4680.5
149,100,4791.8,4698.7
150,100,4900.5,4715.5
151,100,4546.4,4731.1
152,100,4771.3,4757.5
153,100,4495.8,4760.7
154,100,4828.8,4765.1
155,100,4922.9,4786.2
156,100,4904.2,4835.4
157,100,4809.2,4837.0
158,100,4863.6,4876.4
159,100,6031.6,4935.5
160,100,5598.8,5033.6
161,100,5596.1,5099.0
162,100,5552.3,5146.1
163,100,5586.2,5227.3
164,100,4387.0,5495.4
165,100,4451.9,5511.3
166,100,4510.7,5510.5
167,100,4374.1,5531.4
168,100,5764.3,5564.3
169,100,5338.5,5622.9
170,100,4674.2,5900.3
171,100,4607.6,5946.3
172,100,4603.5,5994.4
173,100,5319.6,4147.6
174,100,4665.0,4160.7
175,100,5349.3,4214.8
176,100,4839.5,4335.2
177,100,5412.8,4345.8
178,100,4352.8,4416.4
179,100,5126.0,4470.6
180,100,4588.6,4471.9
181,100,5270.9,4478.4
182,100,5191.3,4496.8
183,100,5299.5,4572.0
184,100,5357.5,4593.4
185,100,5412.3,4592.0
186,100,4456.8,4649.5
187,100,5354.5,4653.4
188,100,5455.0,4670.7
189,100,5312.5,4734.2
190,100,4436.5,4767.0
191,100,5406.2,4779.7
192,100,4427.0,4816.6
193,100,5302.8,4832.8
194,100,5788.3,4919.1
195,100,5867.4,4924.0
196,100,5068.1,4945.1
197,100,5953.0,4946.4
198,100,5268.1,4953.7
199,100,5188.2,4970.5
200,100,5756.7,4986.6
201,100,5821.7,5001.6
202,100,5895.0,5017.5
203,100,6027.1,5028.8
204,100,5697.0,5048.9
205,100,5311.4,5072.0
206,100,5957.3,5081.3
207,100,4776.3,5087.0
208,100,5822.3,5094.2
209,100,4916.9,5106.4
210,100,6015.0,5110.9
211,100,6066.0,5162.2
212,100,4807.1,5157.1
213,100,4855.1,5175.6
214,100,5212.1,5184.0
215,100,5323.1,5188.0
216,100,5460.6,5188.1
217,100,4900.1,5189.5
218,100,4984.6,5193.6
219,100,4846.0,5252.4
220,100,4645.0,5258.9
221,100,5969.9,5381.5
222,100,5514.9,5485.7
223,100,5629.4,5490.3
224,100,5453.9,5506.3
225,100,5383.0,5550.9
226,100,5543.0,5553.8
227,100,5292.2,5580.3
228,100,5460.5,5612.6
229,100,5063.5,5617.3
230,100,5169.6,5628.7
231,100,5472.2,5655.4
232,100,5100.8,5671.9
233,100,4691.4,5674.5
234,100,4880.2,5696.7
235,100,4607.1,5705.1
236,100,4982.8,5721.1
237,100,4453.4,5728.4
238,100,4688.8,5729.2
239,100,4751.4,5738.4
240,100,5114.4,5737.3
241,100,4530.9,5759.0
242,100,5368.6,5757.1
243,100,4678.0,5760.6
244,100,4378.5,5792.0
245,100,5431.1,5792.1
246,100,4471.7,5805.8
247,100,5035.3,5814.2
248,100,5392.6,5846.3
249,100,4567.3,5905.1
250,100,4763.2,5921.8
251,100,4950.8,5981.5
252,100,5803.1,4662.9
253,100,7303.4,2127.9
254,100,7271.1,2134.1
255,100,7617.7,2151.1
256,100,6819.1,2154.4
257,100,7669.9,2157.5
258,100,7553.4,2174.1
259,100,6981.0,2172.2
260,100,7068.7,2180.5
261,100,7109.3,2189.7
262,100,6889.3,2201.7
263,100,7031.7,2205.4
264,100,7208.9,2219.2
265,100,7087.2,2223.6
266,100,6963.4,2256.2
267,100,7549.0,2263.0
268,100,7085.6,2289.9
269,100,7439.9,2660.7
270,100,7054.9,2698.0
271,100,7094.0,2707.9
272,100,7576.8,2744.3
273,100,7616.9,2752.8
274,100,6875.3,2759.4
275,100,8021.8,2782.4
276,100,7409.5,2805.0
277,100,7643.2,2807.3
278,100,7602.9,2844.8
279,100,7639.9,2842.4
280,100,7005.6,2844.6
281,100,8070.7,2855.3
282,100,8123.0,2880.2
283,100,7266.3,2888.4
284,100,7675.9,2886.8
285,100,7538.8,2900.7
286,100,7636.1,2902.4
287,100,7952.2,2906.8
288,100,7271.2,2921.5
289,100,7642.3,2948.6
290,100,7163.8,2945.0
291,100,7986.9,2956.6
292,100,7192.7,2972.0
293,100,7931.7,2974.1
294,100,7816.2,2992.1
295,100,7782.3,2993.5
296,100,7659.8,3008.8
297,100,7901.2,3014.3
298,100,7933.7,3027.4
299,100,7749.8,3030.2
300,100,7809.5,3045.7
301,100,7920.3,3059.7
302,100,7839.8,3065.9
303,100,7872.6,3087.7
304,100,7908.5,3130.3
305,100,7145.3,2163.4
306,100,7271.0,2176.3
307,100,7166.0,2184.0
308,100,7332.4,2199.3
309,100,7671.9,2216.4
310,100,7153.0,2216.3
311,100,7605.5,2222.0
312,100,7687.7,2265.0
313,100,7610.4,2269.1
314,100,7641.9,2305.1
315,100,7580.1,2345.4
316,100,7115.5,2657.0
317,100,7021.9,2775.1
318,100,8108.5,2813.6
319,100,7065.5,2822.9
320,100,7985.7,2844.9
321,100,7171.8,2898.9
322,100,7862.6,2939.4
323,100,7245.6,2947.4
324,100,7594.1,2955.7
325,100,7462.4,2962.0
326,100,7534.1,2978.9
327,100,7862.2,2982.6
328,100,7441.3,2998.5
329,100,7730.4,3080.3
330,100,7794.5,3115.7
331,100,7561.0,2676.9
332,100,6553.2,2952.5
333,100,7131.8,2976.2
334,100,7160.3,3001.8
335,100,7007.5,3069.8
336,100,7932.9,2228.1
337,100,6527.4,2234.9
338,100,6605.6,2260.2
339,100,6903.6,2274.9
340,100,7747.2,2293.4
341,100,6543.4,2294.7
342,100,7819.1,2314.0
343,100,6518.2,2352.3
344,100,6918.5,2368.0
345,100,7767.2,2365.7
346,100,7132.1,2396.6
347,100,7418.9,2402.4
348,100,8113.1,2407.2
349,100,7180.7,2416.5
350,100,7285.2,2421.6
351,100,7070.1,2420.1
352,100,8016.1,2427.6
353,100,7721.3,2457.8
354,100,6655.8,2464.8
355,100,7197.6,2478.7
356,100,7088.8,2480.6
357,100,8057.9,2496.7
358,100,7558.2,2495.3
359,100,7810.3,2496.9
360,100,7849.2,2499.1
361,100,7462.7,2500.4
362,100,7509.8,2507.2
363,100,6632.5,2514.1
364,100,7111.1,2517.2
365,100,6763.5,2527.6
366,100,7488.8,2534.4
367,100,6707.5,2546.1
368,100,7791.6,2544.6
369,100,7672.1,2547.4
370,100,7259.2,2558.8
371,100,7559.7,2555.5
372,100,7307.2,2563.3
373,100,7350.9,2578.0
374,100,7537.9,2580.1
375,100,7867.8,2584.3
376,100,6726.3,2596.8
377,100,7295.2,2598.4
378,100,7558.8,2641.5
379,100,7227.9,2638.6
380,100,7260.9,2673.0
381,100,7631.5,2676.5
382,100,7668.7,2694.7
383,100,7623.9,2707.1
384,100,7866.1,2718.4
385,100,6559.7,2725.2
386,100,7780.1,2741.8
387,100,6615.6,2748.3
388,100,6665.7,2740.3
389,100,7739.3,2749.4
390,100,7323.1,2777.7
391,100,6957.0,2780.3
392,100,6737.4,2797.8
393,100,6811.6,2819.1
394,100,7816.2,2816.9
395,100,7794.8,2851.7
396,100,7866.2,2856.6
397,100,6821.1,2863.3
398,100,7435.2,2877.4
399,100,6761.2,2878.3
400,100,6932.2,2903.8
401,100,7058.3,2941.9
402,100,7107.0,2945.4
403,100,6608.9,2959.3
404,100,6567.5,2986.1
405,100,6672.5,2991.0
406,100,6850.4,2990.4
407,100,6956.8,2990.1
408,100,6743.9,2995.0
409,100,6489.8,3017.7
410,100,7502.2,3033.6
411,100,6587.5,3047.3
412,100,7602.0,3053.7
413,100,6471.9,3069.8
414,100,6954.9,3094.0
415,100,7025.2,3118.9
416,100,7449.7,3128.0
417,100,7514.6,3141.5
418,100,7300.3,3138.8
419,100,7069.6,3173.4
420,100,6927.5,3185.5
421,100,7138.9,3192.3
422,100,8031.3,3192.4
423,100,6969.9,3196.7
424,100,7100.6,3239.7
425,100,7522.3,3247.7
426,100,7826.3,3264.2
427,100,6961.8,3267.1
428,100,7334.5,3276.8
429,100,7641.0,3298.4
430,100,7729.1,3306.7
431,100,7404.7,3333.6
432,100,7506.1,3348.7
433,100,7789.4,3365.9
434,100,8010.7,3396.4
435,100,7910.5,3407.2
436,100,7778.5,3449.1
437,100,7567.1,3473.6
438,100,7540.4,3484.4
439,100,7323.7,3517.9
440,100,7913.4,3546.4
441,100,7710.4,3575.6
442,100,7974.3,3578.6
443,100,7941.3,3634.8
444,100,7892.0,3641.1
445,100,8073.1,3650.0
446,100,7821.3,3690.3
447,100,7882.8,3717.7
448,100,8112.4,3721.2
449,100,6744.3,2153.2
450,100,6728.9,2224.6
451,100,6679.5,2233.7
452,100,7809.2,2253.5
453,100,7884.5,2260.6
454,100,6821.8,2260.5
455,100,7951.4,2280.0
456,100,8019.2,2297.2
457,100,6663.9,2309.4
458,100,7247.7,2319.7
459,100,7985.7,2329.5
460,100,6857.8,2331.9
461,100,7946.6,2343.5
462,100,7724.4,2343.2
463,100,7136.2,2349.9
464,100,6747.3,2358.9
465,100,7440.8,2357.9
466,100,7091.5,2364.4
467,100,6574.4,2370.8
468,100,7484.3,2405.1
469,100,7789.0,2418.4
470,100,7248.8,2416.6
471,100,7832.0,2425.4
472,100,6875.3,2430.3
473,100,7893.9,2441.3
474,100,6937.7,2456.5
475,100,7389.4,2466.9
476,100,7438.8,2473.1
477,100,7948.8,2500.2
478,100,7296.4,2503.9
479,100,7894.7,2517.8
480,100,7045.0,2528.5
481,100,8033.5,2538.8
482,100,6895.5,2542.3
483,100,7182.5,2561.2
484,100,8094.8,2558.7
485,100,8002.0,2579.5
486,100,8045.7,2592.2
487,100,7645.0,2591.6
488,100,7484.7,2605.7
489,100,7742.1,2610.4
490,100,7781.6,2608.2
491,100,6950.4,2610.4
492,100,7695.5,2622.9
493,100,7987.5,2620.0
494,100,7310.4,2622.2
495,100,7647.4,2636.9
496,100,7787.1,2660.9
497,100,7813.4,2666.9
498,100,6869.0,2665.5
499,100,6633.9,2673.9
500,100,7918.5,2669.2
501,100,7746.7,2681.3
502,100,7799.5,2712.2
503,100,7933.4,2722.4
504,100,7190.0,2726.6
505,100,6786.1,2747.2
506,100,7265.3,2785.4
507,100,6612.5,2787.0
508,100,6666.9,2800.6
509,100,7553.5,2805.2
510,100,7515.8,2836.4
511,100,6575.0,2844.2
512,100,7320.3,2846.9
513,100,6631.3,2871.3
514,100,6874.5,2866.3
515,100,6852.5,2869.0
516,100,6697.0,2902.6
517,100,6822.6,2917.6
518,100,7344.8,2914.8
519,100,7279.7,2974.5
520,100,7243.4,3017.6
521,100,7111.7,3015.9
522,100,7272.1,3035.0
523,100,7315.1,3039.2
524,100,6888.0,3044.7
525,100,7026.9,3033.6
526,100,8028.0,3045.4
527,100,7097.2,3055.8
528,100,6799.8,3050.2
529,100,6507.6,3054.8
530,100,6533.8,3066.5
531,100,7153.2,3076.6
532,100,6666.2,3079.5
533,100,6758.3,3082.5
534,100,7271.1,3083.5
535,100,7207.6,3088.5
536,100,8071.9,3098.9
537,100,6536.5,3104.4
538,100,6615.0,3107.0
539,100,7160.0,3107.2
540,100,7679.8,3109.0
541,100,7105.8,3116.3
542,100,6671.8,3122.7
543,100,7617.3,3122.2
544,100,7359.8,3127.4
545,100,7621.0,3179.3
546,100,7772.0,3181.7
547,100,7284.9,3196.1
548,100,7429.0,3204.5
549,100,7503.0,3205.5
550,100,7714.4,3217.5
551,100,7616.6,3232.3
552,100,7994.1,3232.6
553,100,7889.3,3241.5
554,100,7560.2,3264.1
555,100,6905.1,3264.6
556,100,7050.7,3270.9
557,100,7958.3,3271.4
558,100,7590.8,3282.7
559,100,7002.2,3286.2
560,100,7996.1,3287.1
561,100,7105.5,3291.7
562,100,7506.9,3297.3
563,100,7546.1,3304.4
564,100,7921.4,3310.4
565,100,7854.9,3319.4
566,100,8039.0,3324.5
567,100,7129.7,3335.3
568,100,7057.9,3326.6
569,100,7000.4,3338.5
570,100,7843.5,3362.4
571,100,7052.2,3377.5
572,100,7737.6,3378.4
573,100,7695.6,3403.4
574,100,7469.9,3406.7
575,100,7102.3,3416.5
576,100,7836.6,3415.6
577,100,7402.3,3419.8
578,100,7616.3,3435.5
579,100,7352.8,3459.5
580,100,7882.3,3479.0
581,100,8012.3,3473.1
582,100,7716.5,3476.8
583,100,7484.0,3482.0
584,100,7825.5,3506.8
585,100,7404.7,3514.7
586,100,7485.1,3525.6
587,100,7769.6,3531.7
588,100,7630.3,3526.7
589,100,7846.5,3583.6
590,100,7667.3,3646.8
591,100,7581.0,3681.7
592,100,7686.2,3743.5
593,100,8039.8,3761.5
594,100,7774.8,3760.3
595,100,5727.9,2337.4
596,100,5673.3,2384.4
597,100,5728.9,2420.1
598,100,5551.0,2453.4
599,100,5477.8,2460.3
600,100,5409.4,2476.1
601,100,5600.3,2489.9
602,100,5376.5,2530.7
603,100,5455.9,2541.2
604,100,5608.1,2548.4
605,100,4709.7,2608.3
606,100,5410.1,2613.5
607,100,5511.7,2625.2
608,100,5431.2,2679.5
609,100,4735.4,2679.3
610,100,4800.7,2708.3
611,100,5133.6,2835.5
612,100,5188.8,2862.3
613,100,5237.2,2893.1
614,100,5271.4,2937.0
615,100,5138.2,2984.6
616,100,5163.2,2996.3
617,100,4704.4,3051.5
618,100,5078.4,3082.5
619,100,5029.4,3096.9
620,100,4643.0,3115.1
621,100,4999.7,3164.3
622,100,5095.7,3198.2
623,100,5028.3,3349.1
624,100,4789.7,3400.1
625,100,5259.2,2813.3
626,100,5327.7,2825.4
627,100,4915.4,3321.5
628,100,4721.8,3329.1
629,100,4584.5,3329.6
630,100,4633.6,3348.7
631,100,4675.9,3378.4
632,100,4507.6,3380.7
633,100,4612.4,3435.9
634,100,4699.0,3461.3
635,100,4751.1,3533.5
636,100,4872.1,3539.8
637,100,5042.7,3540.1
638,100,4934.1,3551.6
639,100,4985.7,3556.6
640,100,5048.2,3579.0
641,100,4785.4,3605.5
642,100,5508.5,2719.5
643,100,5363.7,2751.8
644,100,4581.2,3102.2
645,100,4752.5,3144.3
646,100,4765.6,3288.2
647,100,4838.5,3304.0
648,100,5647.3,2637.3
649,100,5180.1,2761.1
650,100,4724.7,2765.0
651,100,4666.4,2871.6
652,100,4632.0,2897.9
653,100,4555.9,2903.7
654,100,4707.9,2908.7
655,100,4628.0,2969.3
656,100,4756.4,3071.5
657,100,4753.8,3376.2
658,100,5181.5,2039.5
659,100,5030.8,2063.2
660,100,5093.8,2067.6
661,100,5606.5,2075.8
662,100,5684.6,2094.4
663,100,5281.2,2099.6
664,100,5329.4,2094.2
665,100,5219.6,2109.9
666,100,4613.4,2126.1
667,100,4965.7,2122.5
668,100,4900.6,2132.1
669,100,5471.6,2132.4
670,100,5532.6,2144.9
671,100,5644.7,2168.9
672,100,5111.8,2184.1
673,100,4581.3,2196.9
674,100,4708.2,2211.9
675,100,5785.1,2237.4
676,100,4943.1,2254.4
677,100,5717.0,2255.6
678,100,5806.5,2295.0
679,100,5851.8,2301.1
680,100,5175.5,2305.2
681,100,4993.1,2316.1
682,100,4918.0,2345.9
683,100,4766.0,2342.8
684,100,4681.4,2359.5
685,100,4730.9,2392.1
686,100,5011.9,2391.7
687,100,5616.0,2404.5
688,100,5163.8,2416.6
689,100,4858.2,2416.8
690,100,5259.0,2422.3
691,100,5109.0,2431.6
692,100,5034.4,2451.7
693,100,4818.8,2490.1
694,100,4730.3,2524.1
695,100,4794.8,2553.0
696,100,5919.4,2569.8
697,100,4828.0,2585.5
698,100,4863.3,2623.0
699,100,4921.2,2618.0
700,100,5839.3,2613.5
701,100,5731.6,2627.4
702,100,4975.6,2639.8
703,100,5585.6,2701.9
704,100,5039.9,2705.5
705,100,4943.0,2736.5
706,100,4888.5,2748.5
707,100,5439.7,2746.8
708,100,4559.3,2747.4
709,100,5662.0,2744.1
710,100,5606.1,2745.4
711,100,4480.7,2751.9
712,100,4993.5,2757.6
713,100,4363.9,2776.0
714,100,5556.2,2793.0
715,100,5723.3,2788.8
716,100,4562.0,2806.4
717,100,5047.3,2802.4
718,100,5897.2,2806.1
719,100,5418.8,2814.0
720,100,4954.2,2835.8
721,100,4818.1,2844.5
722,100,5671.6,2854.6
723,100,4881.6,2881.6
724,100,4445.5,2883.9
725,100,5813.3,2884.9
726,100,5743.0,2885.6
727,100,4774.1,2889.8
728,100,5007.4,2900.0
729,100,4823.2,2908.9
730,100,4950.9,2914.7
731,100,5051.1,2912.1
732,100,5107.3,2932.0
733,100,5810.6,2940.1
734,100,4495.1,2958.4
735,100,5037.5,2973.8
736,100,5386.5,2977.9
737,100,5717.7,2972.7
738,100,5452.3,2972.3
739,100,5336.2,2987.0
740,100,5086.7,2987.8
741,100,5662.0,3007.5
742,100,4577.6,3008.6
743,100,5440.4,3043.6
744,100,4943.5,3054.6
745,100,5207.9,3058.6
746,100,5378.1,3059.7
747,100,5170.7,3056.2
748,100,5128.4,3084.1
749,100,5682.4,3088.7
750,100,4413.3,3094.0
751,100,5296.8,3117.9
752,100,4948.0,3116.5
753,100,5740.6,3122.7
754,100,4888.2,3177.7
755,100,4801.4,3202.7
756,100,4912.5,3221.7
757,100,4674.0,3221.2
758,100,5269.4,3247.2
759,100,4947.5,3247.2
760,100,4630.8,3262.5
761,100,4578.6,3259.4
762,100,5033.5,3277.1
763,100,5118.1,3325.8
764,100,5359.7,3358.0
765,100,4893.1,3375.1
766,100,5303.2,3384.4
767,100,5867.2,3400.4
768,100,5939.1,3403.3
769,100,4939.4,3403.6
770,100,4832.1,3418.3
771,100,5245.3,3422.5
772,100,5826.6,3425.2
773,100,5147.2,3429.4
774,100,5539.8,3429.2
775,100,5015.2,3432.5
776,100,5374.1,3458.1
777,100,5314.8,3452.4
778,100,5445.3,3447.2
779,100,5060.0,3462.4
780,100,5905.7,3472.5
781,100,5487.5,3489.9
782,100,5801.9,3500.4
783,100,5718.1,3530.6
784,100,5533.4,3524.0
785,100,5357.3,3536.8
786,100,5722.7,3616.3
787,100,4655.6,2189.4
788,100,4720.6,2254.1
789,100,4847.5,2260.0
790,100,4751.9,2284.8
791,100,5363.3,2284.6
792,100,4676.4,2290.8
793,100,4608.6,2293.6
794,100,4801.0,2308.3
795,100,4838.1,2357.4
796,100,4949.6,2427.3
797,100,5331.4,2451.2
798,100,4985.8,2476.5
799,100,5049.1,2492.4
800,100,4534.5,2510.1
801,100,5226.5,2541.7
802,100,5323.6,2589.4
803,100,5197.3,2608.1
804,100,5040.9,2615.5
805,100,5249.1,2639.6
806,100,4365.0,2673.7
807,100,5794.2,2791.6
808,100,5539.6,3126.7
809,100,5497.7,3149.1
810,100,5575.4,3178.0
811,100,5490.5,3195.5
812,100,5747.8,3245.4
813,100,5460.0,3256.1
814,100,5660.9,3305.9
815,100,5590.7,3536.9
816,100,5626.5,3609.9
817,100,5427.3,2163.2
818,100,5467.9,2248.6
819,100,5263.3,2274.3
820,100,5501.8,2288.7
821,100,5560.2,2313.4
822,100,5599.4,2341.5
823,100,4605.6,2346.1
824,100,4582.4,2403.8
825,100,4606.6,2461.4
826,100,4436.1,2533.3
827,100,4479.8,2611.8
828,100,5157.6,2619.1
829,100,5583.7,2623.0
830,100,4562.6,2631.8
831,100,5581.9,2922.8
832,100,4760.7,2964.1
833,100,5229.5,2977.8
834,100,4785.1,3012.5
835,100,4854.4,3028.5
836,100,4822.2,3089.3
837,100,4876.5,3132.1
838,100,4491.8,3163.7
839,100,5223.4,3171.5
840,100,4554.0,3180.2
841,100,5173.2,3213.2
842,100,5339.8,3213.2
843,100,4468.8,3237.9
844,100,5209.6,3246.7
845,100,4797.5,3247.2
846,100,5391.3,3257.1
847,100,4531.0,3264.2
848,100,5345.9,3312.4
849,100,5482.1,3317.8
850,100,5410.5,3331.8
851,100,5524.6,3377.2
852,100,5436.8,3380.5
853,100,5608.4,3442.4
854,100,5277.8,3541.0
855,100,5400.3,3593.6
856,100,5478.1,3591.9
857,100,5205.4,3605.0
858,100,4777.3,2152.2
859,100,5614.9,2249.7
860,100,5035.3,2252.7
861,100,5085.5,2279.0
862,100,5662.6,2292.7
863,100,5076.8,2343.0
864,100,5121.1,2353.8
865,100,5384.0,2354.6
866,100,5302.7,2353.2
867,100,5174.8,2367.8
868,100,5335.7,2381.3
869,100,5239.3,2383.2
870,100,5429.9,2399.1
871,100,5822.5,2407.1
872,100,4786.2,2437.9
873,100,4895.6,2480.5
874,100,5843.0,2495.8
875,100,5759.0,2499.4
876,100,5099.3,2650.3
877,100,5159.3,2676.2
878,100,4645.5,2722.3
879,100,4427.4,2752.0
880,100,4620.5,2779.2
881,100,4586.7,2843.2
882,100,5486.5,2868.5
883,100,5541.6,3007.4
884,100,5814.0,3016.0
885,100,5585.1,3061.2
886,100,5803.5,3097.4
887,100,5435.1,3101.4
888,100,5935.0,3154.6
889,100,5821.0,3164.0
890,100,5400.2,3164.9
891,100,5875.0,3246.0
892,100,5552.3,3288.9
893,100,5572.4,3326.7
894,100,5705.0,3352.8
895,100,5764.8,3371.8
896,100,5770.3,3429.0
897,100,4877.2,3445.9
898,100,5686.8,3436.4
899,100,5176.1,3517.3
900,100,4595.6,204.6
901,100,4759.0,229.1
902,100,4692.9,226.7
903,100,4660.0,261.9
904,100,4444.8,262.4
905,100,4883.4,270.0
906,100,4611.6,277.4
907,100,4740.8,281.8
908,100,4787.8,288.3
909,100,4864.0,315.4
910,100,4824.0,324.3
911,100,4665.3,340.2
912,100,4763.2,346.4
913,100,5148.2,343.5
914,100,4533.5,355.6
915,100,5080.8,365.6
916,100,4909.3,362.8
917,100,4719.0,367.9
918,100,4858.4,374.0
919,100,5181.3,402.7
920,100,4511.5,416.0
921,100,4667.9,412.4
922,100,4432.2,416.4
923,100,5050.1,418.3
924,100,4809.8,453.4
925,100,4865.1,457.4
926,100,4988.8,460.8
927,100,4592.4,469.7
928,100,4654.0,498.0
929,100,4905.6,498.2
930,100,5293.8,517.0
931,100,4807.7,521.0
932,100,4556.4,527.4
933,100,5361.9,535.9
934,100,5451.6,535.2
935,100,4414.1,545.3
936,100,4487.0,558.5
937,100,4846.9,569.5
938,100,4337.2,568.8
939,100,5231.5,568.4
940,100,5118.0,584.4
941,100,4297.1,612.0
942,100,5157.2,620.8
943,100,5423.2,617.3
944,100,4503.9,624.1
945,100,5020.2,629.4
946,100,4683.0,640.0
947,100,4356.5,633.7
948,100,5301.9,653.9
949,100,4971.0,654.5
950,100,5626.0,656.7
951,100,4578.3,676.3
952,100,5076.8,679.3
953,100,4516.8,686.1
954,100,5174.4,702.9
955,100,5416.5,715.4
956,100,4388.6,715.6
957,100,4486.2,723.8
958,100,4795.0,722.8
959,100,5252.0,728.0
960,100,4313.2,742.2
961,100,4941.3,744.0
962,100,4733.9,745.4
963,100,4368.6,750.1
964,100,5300.2,756.3
965,100,4851.1,755.8
966,100,4596.7,796.3
967,100,4390.7,810.2
968,100,4779.0,811.8
969,100,4697.1,810.7
970,100,5342.0,822.3
971,100,4525.3,825.2
972,100,4454.9,832.0
973,100,4868.3,827.0
974,100,5282.8,846.0
975,100,5484.1,853.0
976,100,5115.2,860.4
977,100,5053.4,869.7
978,100,5010.5,876.2
979,100,5358.5,880.0
980,100,4551.1,882.9
981,100,4736.7,893.9
982,100,5207.4,898.6
983,100,5467.2,898.4
984,100,5085.9,939.8
985,100,5389.9,951.9
986,100,5182.0,961.2
987,100,5314.2,977.1
988,100,4465.9,999.2
989,100,4726.9,1013.1
990,100,4625.1,1016.1
991,100,5625.0,1045.6
992,100,5170.7,1052.7
993,100,5701.9,1053.7
994,100,4930.4,1059.6
995,100,5404.7,1059.5
996,100,4984.7,1073.8
997,100,5463.5,1073.4
998,100,4600.5,1075.5
999,100,4530.5,1072.8
1000,100,5316.2,1093.4
1001,100,4767.4,1105.8
1002,100,4426.8,1104.6
1003,100,4491.4,1112.2
1004,100,4864.1,1106.8
1005,100,5507.2,1112.8
1006,100,4564.9,1125.5
1007,100,5365.6,1135.5
1008,100,5073.8,1136.0
1009,100,5456.6,1155.0
1010,100,5151.6,1156.2
1011,100,5258.2,1165.7
1012,100,5706.2,1164.1
1013,100,4588.6,1168.5
1014,100,4738.4,1173.8
1015,100,4420.4,1173.3
1016,100,5773.8,1184.3
1017,100,4494.3,1187.6
1018,100,5022.1,1191.8
1019,100,5659.1,1193.1
1020,100,4351.6,1198.6
1021,100,5071.1,1211.1
1022,100,5355.1,1211.8
1023,100,4945.2,1221.6
1024,100,4798.0,1217.7
1025,100,4714.2,1231.0
1026,100,5742.3,1236.8
1027,100,5109.0,1258.8
1028,100,5265.8,1257.1
1029,100,4492.5,1261.9
1030,100,5316.4,1272.2
1031,100,4444.5,1292.5
1032,100,5858.2,1289.2
1033,100,5809.1,1299.8
1034,100,4988.4,1300.0
1035,100,4366.4,1308.0
1036,100,5739.0,1305.1
1037,100,5239.3,1319.2
1038,100,5111.7,1317.6
1039,100,5051.5,1332.2
1040,100,5431.5,1319.3
1041,100,5326.7,1338.2
1042,100,4781.2,1344.2
1043,100,5801.8,1382.3
1044,100,4617.3,1391.5
1045,100,4995.9,1395.2
1046,100,5085.7,1412.9
1047,100,5333.5,1426.7
1048,100,4949.2,1429.7
1049,100,4895.2,1442.0
1050,100,5411.4,1446.1
1051,100,5127.9,1463.5
1052,100,4991.7,1467.0
1053,100,4657.1,1466.6
1054,100,5052.0,1481.6
1055,100,5301.3,1483.1
1056,100,4742.2,1488.8
1057,100,5212.9,1507.1
1058,100,4952.0,1521.3
1059,100,5777.9,1536.5
1060,100,5405.3,1534.6
1061,100,5319.6,1545.2
1062,100,5482.8,1553.6
1063,100,5236.5,1558.6
1064,100,4909.3,1555.3
1065,100,4454.7,1564.3
1066,100,4689.3,1572.1
1067,100,4952.4,1586.8
1068,100,4535.1,1585.8
1069,100,4744.5,1595.4
1070,100,5179.5,1607.0
1071,100,5357.4,1616.8
1072,100,5281.8,1623.9
1073,100,5118.1,1643.0
1074,100,4990.8,1648.5
1075,100,5057.2,1672.7
1076,100,4640.6,1683.2
1077,100,5389.5,1683.2
1078,100,5155.5,1695.7
1079,100,5784.4,1707.4
1080,100,5032.6,1711.5
1081,100,4829.5,1715.1
1082,100,5878.1,1718.3
1083,100,5454.6,1752.5
1084,100,5529.0,1759.4
1085,100,5595.5,1776.4
1086,100,5370.2,1786.0
1087,100,5547.3,1832.3
1088,100,5738.7,328.4
1089,100,5772.5,395.8
1090,100,4720.4,483.4
1091,100,5093.6,500.0
1092,100,4757.7,557.7
1093,100,5089.1,555.7
1094,100,5003.1,563.5
1095,100,5878.7,565.7
1096,100,5770.4,560.3
1097,100,5067.9,613.8
1098,100,5526.5,785.3
1099,100,5447.3,803.1
1100,100,4910.5,852.9
1101,100,5695.1,859.2
1102,100,5787.0,874.2
1103,100,4838.1,875.8
1104,100,4897.6,908.6
1105,100,5535.3,915.1
1106,100,4784.5,928.1
1107,100,5027.0,934.7
1108,100,5599.6,958.3
1109,100,5496.8,965.7
1110,100,4845.9,970.7
1111,100,5135.1,983.4
1112,100,5248.8,985.7
1113,100,4937.8,989.6
1114,100,4993.9,991.7
1115,100,5556.4,1029.8
1116,100,5798.1,1088.0
1117,100,5626.2,1231.9
1118,100,5406.5,1244.9
1119,100,5596.5,1290.5
1120,100,5668.2,1327.1
1121,100,5505.2,1412.3
1122,100,5598.3,1407.9
1123,100,5653.4,1448.0
1124,100,5737.1,1446.1
1125,100,5594.1,1500.6
1126,100,5529.3,1503.9
1127,100,5678.8,1521.7
1128,100,5440.2,1605.9
1129,100,5619.2,1616.8
1130,100,5530.8,1640.6
1131,100,5574.9,1692.1
1132,100,5342.6,1702.1
1133,100,5282.6,1695.9
1134,100,5673.6,1698.5
1135,100,5624.9,1719.5
1136,100,4765.5,1725.2
1137,100,5116.7,1779.2
1138,100,4827.6,1781.4
1139,100,5175.5,1819.4
1140,100,5156.9,470.7
1141,100,5036.8,509.5
1142,100,5163.8,538.7
1143,100,5570.7,598.1
1144,100,5621.3,602.5
1145,100,4891.9,626.3
1146,100,5677.0,664.4
1147,100,5785.5,749.8
1148,100,5639.7,749.8
1149,100,4653.2,851.6
1150,100,4682.0,898.5
1151,100,4449.7,929.5
1152,100,5640.0,938.2
1153,100,4499.2,949.7
1154,100,5550.3,971.3
1155,100,5159.3,1383.3
1156,100,5218.2,1379.1
1157,100,5230.0,1434.3
1158,100,4780.7,1542.0
1159,100,4856.1,1604.3
1160,100,4586.9,1633.8
1161,100,4787.2,1677.3
1162,100,4720.7,1779.6
1163,100,5105.5,251.0
1164,100,5020.8,330.4
1165,100,5326.8,337.9
1166,100,5679.8,345.2
1167,100,5259.9,365.0
1168,100,5426.8,369.1
1169,100,5482.6,387.8
1170,100,5642.7,401.7
1171,100,5290.2,431.0
1172,100,5560.4,472.9
1173,100,5630.9,474.5
1174,100,5604.8,546.5
1175,100,5513.8,558.4
1176,100,5720.4,573.1
1177,100,5813.5,594.0
1178,100,5467.1,620.2
1179,100,5527.3,627.8
1180,100,5764.0,636.2
1181,100,5858.7,671.3
1182,100,5562.8,681.8
1183,100,5493.1,690.4
1184,100,5811.4,698.5
1185,100,4641.2,902.8
1186,100,5755.0,925.4
1187,100,4620.6,944.9
1188,100,5686.7,937.3
1189,100,5708.5,983.2
1190,100,5775.4,990.5
1191,100,5078.7,1039.4
1192,100,5109.7,1083.0
1193,100,4938.6,1102.2
1194,100,4690.3,1125.5
1195,100,4974.1,1130.8
1196,100,4612.1,1239.4
1197,100,4567.5,1271.1
1198,100,4695.8,1313.4
1199,100,5904.9,1321.9
1200,100,4623.7,1331.7
1201,100,4894.9,1366.1
1202,100,4448.9,1373.7
1203,100,5867.7,1389.7
1204,100,4365.7,1400.9
1205,100,4497.6,1416.3
1206,100,5912.0,1416.4
1207,100,4827.7,1420.1
1208,100,4403.5,1439.5
1209,100,5842.9,1452.8
1210,100,4435.6,1486.8
1211,100,4485.8,1509.8
1212,100,5832.8,1509.9
1213,100,4639.9,1544.9
1214,100,5015.4,1583.0
1215,100,5078.0,1590.0
1216,100,4345.1,1603.6
1217,100,4470.6,1638.4
1218,100,4390.5,1650.9
1219,100,4503.3,1755.9
1220,100,4991.9,1762.2
1221,100,5057.2,1766.4
1222,100,4297.2,1823.7
1223,100,2869.2,830.2
1224,100,3014.7,852.9
1225,100,2788.5,857.8
1226,100,2527.0,874.5
1227,100,2629.0,878.0
1228,100,2570.5,877.3
1229,100,2720.2,878.7
1230,100,2869.9,884.0
1231,100,2595.6,893.3
1232,100,2465.1,891.4
1233,100,3268.1,900.0
1234,100,3596.1,902.3
1235,100,3503.5,909.0
1236,100,2425.8,915.5
1237,100,2957.1,918.3
1238,100,3029.6,912.0
1239,100,2791.4,922.3
1240,100,3566.2,936.1
1241,100,2540.8,945.3
1242,100,2378.2,951.9
1243,100,2670.9,962.7
1244,100,3233.2,979.7
1245,100,3313.2,971.6
1246,100,2621.6,974.3
1247,100,2518.9,986.5
1248,100,2944.5,991.3
1249,100,3051.4,990.8
1250,100,2373.9,1001.1
1251,100,3131.6,1001.6
1252,100,2602.2,1021.2
1253,100,2673.3,1019.9
1254,100,2436.7,1034.6
1255,100,3247.7,1043.0
1256,100,2741.9,1047.5
1257,100,2528.2,1058.7
1258,100,2391.5,1064.6
1259,100,2339.6,1069.3
1260,100,3018.3,1083.2
1261,100,2473.8,1101.3
1262,100,2613.4,1102.1
1263,100,2748.3,1105.8
1264,100,2380.6,1118.5
1265,100,3003.4,1130.9
1266,100,2418.3,1134.7
1267,100,2698.9,1142.2
1268,100,2513.6,1141.4
1269,100,2292.9,1152.1
1270,100,2455.5,1159.0
1271,100,2577.2,1173.3
1272,100,2814.2,1168.4
1273,100,2384.4,1178.0
1274,100,2320.2,1181.5
1275,100,2648.1,1189.1
1276,100,2982.8,1187.4
1277,100,2862.0,1204.4
1278,100,2917.8,1218.1
1279,100,2490.8,1208.8
1280,100,2310.0,1229.8
1281,100,2750.4,1234.7
1282,100,2376.7,1231.5
1283,100,3044.9,1233.3
1284,100,3107.1,1235.6
1285,100,2459.0,1252.8
1286,100,2660.1,1254.3
1287,100,2972.7,1256.0
1288,100,2243.3,1268.3
1289,100,2833.7,1270.8
1290,100,3274.2,1281.4
1291,100,3318.1,1290.5
1292,100,2379.9,1292.3
1293,100,2530.7,1292.1
1294,100,3029.7,1295.5
1295,100,2720.5,1296.3
1296,100,2453.7,1314.1
1297,100,2642.9,1326.3
1298,100,2924.1,1328.2
1299,100,3156.6,1329.8
1300,100,2336.0,1330.8
1301,100,3706.1,1333.6
1302,100,3405.0,1337.3
1303,100,3071.4,1370.9
1304,100,2348.8,1377.8
1305,100,2511.3,1380.2
1306,100,2239.4,1388.8
1307,100,2752.3,1406.1
1308,100,2672.7,1407.7
1309,100,3194.3,1413.7
1310,100,2441.3,1414.3
1311,100,3021.2,1422.4
1312,100,3311.1,1423.7
1313,100,2851.0,1419.8
1314,100,3368.2,1429.5
1315,100,2344.1,1445.4
1316,100,3748.6,1451.2
1317,100,2642.7,1460.6
1318,100,2497.2,1460.1
1319,100,3167.5,1462.7
1320,100,3216.4,1484.2
1321,100,2731.8,1480.7
1322,100,2946.9,1478.0
1323,100,2550.5,1482.5
1324,100,3001.1,1489.8
1325,100,3085.3,1489.4
1326,100,3146.0,1507.4
1327,100,2393.8,1496.6
1328,100,2604.2,1508.7
1329,100,3476.2,1511.2
1330,100,3710.2,1509.8
1331,100,2445.4,1513.7
1332,100,2341.8,1516.8
1333,100,2914.0,1527.7
1334,100,3402.2,1527.5
1335,100,3043.1,1541.8
1336,100,2869.6,1552.6
1337,100,3475.8,1560.4
1338,100,3168.9,1565.9
1339,100,2713.5,1577.1
1340,100,2966.4,1589.3
1341,100,3353.2,1587.4
1342,100,2328.0,1589.3
1343,100,2407.7,1589.7
1344,100,3033.7,1616.8
1345,100,3432.5,1630.9
1346,100,3374.7,1639.9
1347,100,3230.6,1649.0
1348,100,3132.7,1650.6
1349,100,2351.7,1674.4
1350,100,2418.6,1675.6
1351,100,2558.7,1677.5
1352,100,2477.6,1682.4
1353,100,3624.5,1687.4
1354,100,3295.9,1703.0
1355,100,3357.2,1713.3
1356,100,3561.8,1721.2
1357,100,3416.3,1718.6
1358,100,3207.6,1719.6
1359,100,2347.7,1734.6
1360,100,2612.8,1735.3
1361,100,2544.7,1759.9
1362,100,3645.1,1761.4
1363,100,3182.8,1778.2
1364,100,2758.6,1787.2
1365,100,3290.1,1805.4
1366,100,2481.4,1813.3
1367,100,3472.8,1811.3
1368,100,3369.6,1837.3
1369,100,2808.9,1835.0
1370,100,3161.9,1845.6
1371,100,3655.6,1855.6
1372,100,3455.6,1865.4
1373,100,2758.9,1862.3
1374,100,2324.1,1862.1
1375,100,2824.6,1884.0
1376,100,3394.7,1886.4
1377,100,3304.1,1897.1
1378,100,3248.8,1902.9
1379,100,2394.2,1913.0
1380,100,3473.5,1913.8
1381,100,3422.1,1919.1
1382,100,3843.6,1915.3
1383,100,3672.1,1921.3
1384,100,3758.6,1927.5
1385,100,2306.3,1923.8
1386,100,2564.2,1946.2
1387,100,2434.3,1963.7
1388,100,2647.2,1986.8
1389,100,3422.6,1989.0
1390,100,3561.8,2002.1
1391,100,2393.6,2000.4
1392,100,3646.4,1999.3
1393,100,3830.3,2004.3
1394,100,3770.1,2002.3
1395,100,2337.6,2007.5
1396,100,3706.9,2012.7
1397,100,2471.6,2012.8
1398,100,3468.5,2012.2
1399,100,2893.9,2030.5
1400,100,3374.1,2035.4
1401,100,3433.9,2059.0
1402,100,2343.7,2067.5
1403,100,2454.7,2070.3
1404,100,2974.6,2073.4
1405,100,3756.3,2079.2
1406,100,2845.6,2087.0
1407,100,3486.1,2099.7
1408,100,3383.2,2094.8
1409,100,3544.2,2093.2
1410,100,3320.9,2097.5
1411,100,3078.4,2104.6
1412,100,3695.3,2126.4
1413,100,2388.4,2129.9
1414,100,3764.0,2131.5
1415,100,2466.4,2135.9
1416,100,2628.8,2144.7
1417,100,3029.9,2154.3
1418,100,3812.5,2156.2
1419,100,2441.1,2182.4
1420,100,3516.3,2179.2
1421,100,3605.8,2187.1
1422,100,2372.5,2194.1
1423,100,2669.4,2208.9
1424,100,2597.8,2212.9
1425,100,3116.0,2220.9
1426,100,2853.9,2218.0
1427,100,2929.2,2238.4
1428,100,3040.1,2233.4
1429,100,2993.7,2248.9
1430,100,2778.2,2258.5
1431,100,3679.3,2267.8
1432,100,2634.0,2271.7
1433,100,3149.1,2287.9
1434,100,3084.5,2290.4
1435,100,2512.1,2289.6
1436,100,2568.9,2299.3
1437,100,3545.9,2301.6
1438,100,2964.1,2301.8
1439,100,3024.2,2317.0
1440,100,3370.0,2314.2
1441,100,3182.6,2325.2
1442,100,3416.3,2347.1
1443,100,2961.7,2343.6
1444,100,2721.6,2342.7
1445,100,2538.1,2352.3
1446,100,2593.9,2353.3
1447,100,2798.3,2372.8
1448,100,2742.1,2398.0
1449,100,3054.3,2399.4
1450,100,3584.7,2400.3
1451,100,2951.3,2405.7
1452,100,3221.9,2405.9
1453,100,2419.4,2415.5
1454,100,3264.2,2422.6
1455,100,3364.7,2424.6
1456,100,3762.0,2429.6
1457,100,3433.7,2442.9
1458,100,2560.0,2442.2
1459,100,3190.4,2466.6
1460,100,3523.2,2460.9
1461,100,3657.7,2469.6
1462,100,2422.2,2474.2
1463,100,3285.8,2482.8
1464,100,2366.3,2503.8
1465,100,2530.6,2537.2
1466,100,2946.3,830.6
1467,100,2901.6,947.9
1468,100,2720.8,953.1
1469,100,2748.4,958.6
1470,100,2773.8,990.9
1471,100,2853.1,1051.3
1472,100,2796.1,1068.7
1473,100,3385.4,1113.6
1474,100,3450.0,1136.6
1475,100,3505.9,1135.6
1476,100,3292.1,1167.7
1477,100,3348.5,1186.6
1478,100,3405.3,1188.2
1479,100,3477.7,1203.6
1480,100,3175.8,1226.4
1481,100,3424.8,1257.5
1482,100,3361.4,1272.3
1483,100,3473.2,1281.1
1484,100,2785.9,1310.1
1485,100,2847.6,1345.6
1486,100,3647.2,1639.5
1487,100,3703.6,1655.5
1488,100,2410.5,1726.7
1489,100,3723.4,1715.9
1490,100,2484.4,1776.9
1491,100,2354.6,1819.0
1492,100,2377.8,1842.3
1493,100,3060.9,1871.4
1494,100,3367.2,1930.0
1495,100,3050.1,1944.3
1496,100,3193.1,1945.1
1497,100,3123.9,1955.5
1498,100,3156.6,2026.0
1499,100,3255.8,2066.3
1500,100,3158.0,2095.9
1501,100,3202.8,2104.1
1502,100,3213.5,2162.1
1503,100,3273.0,2161.5
1504,100,3786.0,1197.5
1505,100,3726.1,1256.0
1506,100,3793.0,1261.4
1507,100,3347.9,1356.1
1508,100,3235.1,1369.9
1509,100,3454.3,1383.0
1510,100,3532.1,1383.5
1511,100,3531.3,1462.8
1512,100,3325.8,1476.1
1513,100,3785.7,1545.9
1514,100,3713.2,1589.4
1515,100,3865.5,1609.4
1516,100,3588.7,1610.6
1517,100,3771.8,1625.3
1518,100,2645.3,1634.6
1519,100,3488.1,1649.6
1520,100,3825.8,1669.4
1521,100,2694.3,1701.8
1522,100,2862.4,1947.2
1523,100,2947.3,1951.3
1524,100,2948.1,2008.8
1525,100,3171.3,964.1
1526,100,3628.4,974.0
1527,100,3694.0,986.8
1528,100,3453.1,1002.9
1529,100,3357.3,1026.0
1530,100,3420.8,1046.8
1531,100,3514.0,1043.2
1532,100,3609.5,1046.8
1533,100,3674.9,1050.6
1534,100,3251.1,1095.7
1535,100,3664.7,1111.2
1536,100,2943.6,1125.5
1537,100,3581.5,1118.0
1538,100,3141.5,1138.3
1539,100,3569.7,1167.7
1540,100,3534.8,1206.8
1541,100,3254.0,1214.8
1542,100,3657.6,1256.8
1543,100,3557.0,1295.5
1544,100,3780.7,1331.5
1545,100,3621.5,1370.5
1546,100,3826.1,1420.6
1547,100,3659.3,1431.6
1548,100,2789.0,1597.5
1549,100,2842.8,1643.5
1550,100,2774.4,1695.7
1551,100,2953.6,1722.3
1552,100,2968.4,1806.1
1553,100,2906.1,1897.8
1554,100,2788.5,1940.0
1555,100,2725.7,1966.5
1556,100,2759.8,2032.3
1557,100,2566.6,2050.5
1558,100,2774.0,2094.2
1559,100,2690.2,2101.7
1560,100,2920.0,2104.3
1561,100,2799.1,2146.5
1562,100,2859.2,2149.3
1563,100,2936.7,2160.0
1564,100,3220.6,2242.1
1565,100,3253.7,2300.0
1566,100,3286.1,2314.6
1567,100,3756.0,2315.5
1568,100,2846.4,956.0
1569,100,1387.5,2038.9
1570,100,1280.9,2074.8
1571,100,1373.8,2090.5
1572,100,1459.1,2105.9
1573,100,1321.1,2119.6
1574,100,1286.5,2140.5
1575,100,1379.9,2134.0
1576,100,1441.3,2168.8
1577,100,1387.9,2209.2
1578,100,1316.3,2234.5
1579,100,1097.5,2239.6
1580,100,1377.3,2285.6
1581,100,1321.4,2309.7
1582,100,987.3,2314.3
1583,100,1238.1,2319.2
1584,100,1151.8,2331.7
1585,100,1277.6,2369.1
1586,100,788.7,2376.1
1587,100,1031.6,2383.6
1588,100,1085.8,2382.2
1589,100,1184.3,2379.3
1590,100,729.4,2383.5
1591,100,1129.4,2411.1
1592,100,917.5,2418.1
1593,100,1296.5,2419.7
1594,100,1029.1,2439.6
1595,100,1243.6,2446.0
1596,100,1129.1,2463.1
1597,100,1203.9,2487.4
1598,100,1038.5,2500.5
1599,100,1283.1,2502.2
1600,100,839.8,2504.1
1601,100,1143.9,2521.6
1602,100,1356.3,2526.3
1603,100,952.0,2538.9
1604,100,870.9,2573.6
1605,100,1293.7,2574.9
1606,100,1152.2,2578.9
1607,100,1367.1,2593.9
1608,100,1412.9,2620.3
1609,100,1136.4,2630.4
1610,100,1330.3,2652.5
1611,100,1283.7,2665.9
1612,100,617.0,2668.8
1613,100,1404.9,2665.2
1614,100,1360.8,2702.3
1615,100,1157.0,2711.0
1616,100,763.0,2726.0
1617,100,1286.6,2729.8
1618,100,1221.5,2752.8
1619,100,528.1,2789.1
1620,100,1309.2,2791.1
1621,100,442.1,2836.5
1622,100,603.8,2900.5
1623,100,1355.7,2898.0
1624,100,691.0,2952.7
1625,100,758.1,2966.3
1626,100,1200.3,2962.8
1627,100,590.5,3000.4
1628,100,1354.0,2998.9
1629,100,712.8,3006.7
1630,100,1409.8,3015.0
1631,100,662.6,3019.8
1632,100,1295.2,3037.6
1633,100,366.6,3075.9
1634,100,854.0,3083.9
1635,100,762.5,3083.1
1636,100,1271.0,3087.6
1637,100,585.8,3089.3
1638,100,689.5,3136.8
1639,100,989.0,3143.4
1640,100,757.2,3229.8
1641,100,887.8,3253.0
1642,100,741.2,3334.1
1643,100,412.3,1952.8
1644,100,257.8,1956.5
1645,100,415.7,2033.2
1646,100,281.7,2066.0
1647,100,484.8,2084.2
1648,100,383.8,2107.3
1649,100,796.5,2247.7
1650,100,332.9,2291.7
1651,100,864.0,2299.3
1652,100,378.3,2349.0
1653,100,226.6,2357.5
1654,100,1588.6,2362.8
1655,100,1456.9,2378.8
1656,100,1701.0,2401.0
1657,100,1639.0,2454.1
1658,100,1724.2,2461.8
1659,100,1745.3,2520.3
1660,100,1859.4,2518.3
1661,100,1826.9,2563.3
1662,100,1901.8,2592.7
1663,100,1768.2,2629.6
1664,100,1848.8,2653.3
1665,100,1898.5,2689.7
1666,100,1781.9,2728.1
1667,100,1858.0,2765.9
1668,100,1736.7,2777.3
1669,100,1795.6,2806.8
1670,100,1703.4,2997.1
1671,100,1041.5,3018.5
1672,100,1764.1,3059.4
1673,100,1835.6,3070.4
1674,100,1083.3,3072.5
1675,100,1678.7,3104.9
1676,100,1041.7,3112.2
1677,100,1729.5,3138.2
1678,100,1795.2,3140.8
1679,100,319.3,3191.2
1680,100,1400.2,1653.9
1681,100,1740.3,1664.6
1682,100,1688.2,1673.8
1683,100,1610.7,1680.3
1684,100,1333.0,1725.0
1685,100,1780.3,1723.6
1686,100,1718.7,1729.8
1687,100,1586.6,1745.1
1688,100,591.9,1771.0
1689,100,1698.1,1785.6
1690,100,1756.8,1785.7
1691,100,659.9,1804.1
1692,100,1488.3,1817.0
1693,100,1565.9,1810.7
1694,100,551.1,1826.3
1695,100,1623.7,1837.5
1696,100,609.3,1852.7
1697,100,488.4,1861.7
1698,100,1745.4,1872.6
1699,100,577.3,1883.3
1700,100,1383.3,1878.3
1701,100,1552.7,1878.3
1702,100,677.5,1885.4
1703,100,1677.3,1894.5
1704,100,1499.3,1904.0
1705,100,1450.2,1924.3
1706,100,1837.5,1939.1
1707,100,1762.7,1938.6
1708,100,1557.2,1963.6
1709,100,1392.2,1964.6
1710,100,1890.8,2004.7
1711,100,1805.2,2019.2
1712,100,1621.0,2022.6
1713,100,1694.3,2052.2
1714,100,1563.7,2054.9
1715,100,1541.9,2089.5
1716,100,1623.3,2093.6
1717,100,1713.4,2132.5
1718,100,1802.8,2151.8
1719,100,1641.9,2168.0
1720,100,1506.1,2199.5
1721,100,1832.2,2205.1
1722,100,1744.7,2237.1
1723,100,1875.3,2242.7
1724,100,1631.1,2240.3
1725,100,1508.2,2257.0
1726,100,1853.2,2295.6
1727,100,1606.4,2303.9
1728,100,1668.0,2323.3
1729,100,303.4,2418.3
1730,100,1572.7,2419.8
1731,100,360.5,2436.5
1732,100,221.9,2451.5
1733,100,293.3,2480.9
1734,100,209.7,2537.2
1735,100,453.4,2586.5
1736,100,527.9,2607.3
1737,100,434.0,2645.8
1738,100,532.8,2675.4
1739,100,337.3,2696.0
1740,100,439.9,2703.1
1741,100,411.7,2768.1
1742,100,1744.0,2889.6
1743,100,1660.9,2927.8
1744,100,1730.4,2944.1
1745,100,1791.0,2963.7
1746,100,1644.6,3197.2
1747,100,1591.1,3261.2
1748,100,1300.7,3284.3
1749,100,322.9,3330.2
1750,100,1498.3,3362.5
1751,100,1687.0,3395.8
1752,100,735.1,1761.1
1753,100,796.1,1791.5
1754,100,1065.6,1790.3
1755,100,1259.2,1807.2
1756,100,884.9,1807.7
1757,100,1004.3,1859.5
1758,100,1200.1,1860.7
1759,100,1281.8,1887.3
1760,100,894.7,1892.8
1761,100,806.2,1921.1
1762,100,925.3,1934.2
1763,100,745.5,1953.2
1764,100,864.0,1963.8
1765,100,552.7,1971.2
1766,100,652.1,1976.3
1767,100,934.1,1999.7
1768,100,831.0,2026.1
1769,100,990.8,2033.4
1770,100,1455.7,2030.8
1771,100,1160.4,2031.8
1772,100,515.9,2033.2
1773,100,664.3,2038.2
1774,100,1081.8,2057.5
1775,100,642.6,2080.1
1776,100,971.2,2094.3
1777,100,1143.0,2104.7
1778,100,1047.8,2120.8
1779,100,1202.8,2117.9
1780,100,593.8,2126.9
1781,100,659.0,2131.8
1782,100,536.8,2138.3
1783,100,906.3,2143.1
1784,100,1553.3,2153.4
1785,100,514.4,2165.1
1786,100,1151.9,2165.1
1787,100,422.5,2173.7
1788,100,1271.4,2187.6
1789,100,837.2,2193.4
1790,100,1198.4,2211.3
1791,100,920.4,2212.1
1792,100,568.6,2216.4
1793,100,365.2,2221.6
1794,100,1250.3,2251.0
1795,100,526.8,2262.8
1796,100,1189.2,2272.8
1797,100,1121.1,2281.8
1798,100,504.9,2303.2
1799,100,1375.0,2424.8
1800,100,525.6,2434.8
1801,100,425.5,2439.1
1802,100,1483.8,2462.5
1803,100,432.9,2480.1
1804,100,1566.0,2495.9
1805,100,508.0,2516.4
1806,100,660.6,2527.0
1807,100,1634.9,2538.4
1808,100,1571.6,2553.2
1809,100,1443.6,2549.6
1810,100,722.7,2566.3
1811,100,1490.7,2590.7
1812,100,654.1,2603.4
1813,100,1519.9,2618.1
1814,100,964.1,2614.2
1815,100,1579.9,2629.4
1816,100,1645.3,2632.6
1817,100,761.1,2643.1
1818,100,1053.7,2638.6
1819,100,1459.1,2657.1
1820,100,1499.1,2672.9
1821,100,1687.5,2678.2
1822,100,1556.4,2695.7
1823,100,924.7,2714.4
1824,100,653.9,2722.3
1825,100,1493.9,2738.8
1826,100,1573.8,2754.8
1827,100,610.7,2755.4
1828,100,765.3,2784.8
1829,100,684.5,2798.7
1830,100,1597.5,2833.7
1831,100,1669.3,2840.3
1832,100,1523.5,2840.1
1833,100,652.5,2861.6
1834,100,770.2,2880.8
1835,100,924.3,2894.4
1836,100,501.7,2903.3
1837,100,829.8,2909.3
1838,100,420.3,2909.8
1839,100,488.8,2959.7
1840,100,1505.4,2957.4
1841,100,1462.3,2986.5
1842,100,419.0,2984.1
1843,100,1560.1,2987.1
1844,100,1137.9,3014.5
1845,100,1612.8,3020.5
1846,100,1547.6,3056.6
1847,100,1610.4,3071.8
1848,100,1362.9,3123.8
1849,100,1264.9,3144.9
1850,100,1426.3,3148.9
1851,100,1167.7,3174.6
1852,100,1225.3,3208.0
1853,100,1538.0,3205.3
1854,100,1461.4,3210.1
1855,100,1748.1,3220.5
1856,100,1169.5,3252.6
1857,100,1664.5,3260.7
1858,100,1703.7,3316.0
1859,100,1796.5,3321.6
1860,100,2509.2,4310.2
1861,100,2441.0,4310.8
1862,100,2838.1,4342.9
1863,100,2473.4,4359.9
1864,100,2842.5,4378.7
1865,100,2470.3,4399.5
1866,100,2462.7,4449.1
1867,100,2587.3,4455.4
1868,100,2821.8,4458.3
1869,100,2521.9,4476.0
1870,100,2779.8,4512.4
1871,100,2592.2,4678.8
1872,100,2649.2,4691.9
1873,100,2538.9,4709.1
1874,100,2661.2,4723.5
1875,100,2612.5,4735.6
1876,100,2464.3,4739.6
1877,100,2413.2,4771.6
1878,100,2666.1,4755.5
1879,100,2555.8,4783.1
1880,100,2608.1,4787.3
1881,100,2424.0,4820.9
1882,100,2507.9,4824.0
1883,100,2510.4,4853.6
1884,100,2454.4,4884.9
1885,100,2495.2,4920.9
1886,100,2567.8,4952.6
1887,100,2493.2,4964.1
1888,100,2463.9,5004.2
1889,100,2543.4,5029.9
1890,100,2506.4,5065.2
1891,100,2808.6,5168.5
1892,100,2842.8,5198.2
1893,100,2892.0,5221.7
1894,100,2800.2,5252.6
1895,100,3821.0,3694.5
1896,100,3927.2,3754.0
1897,100,3480.0,3815.4
1898,100,3752.1,3870.1
1899,100,3346.4,3932.6
1900,100,3485.8,3994.6
1901,100,3203.6,4032.2
1902,100,3718.2,4104.6
1903,100,3221.4,4126.5
1904,100,3252.9,4226.4
1905,100,3739.1,4289.7
1906,100,3264.8,4289.7
1907,100,3445.0,4290.0
1908,100,3828.1,4299.2
1909,100,3174.7,4306.7
1910,100,3675.9,4319.3
1911,100,3616.7,4331.8
1912,100,3537.8,4341.8
1913,100,3188.3,4347.8
1914,100,3297.7,4350.2
1915,100,3401.3,4354.4
1916,100,3751.6,4361.3
1917,100,3475.8,4362.6
1918,100,3165.0,4381.4
1919,100,2654.1,4385.8
1920,100,3288.7,4392.0
1921,100,3861.9,4396.6
1922,100,3112.9,4399.8
1923,100,3222.6,4402.2
1924,100,3630.8,4419.2
1925,100,3785.8,4422.6
1926,100,3724.0,4425.0
1927,100,3307.9,4432.0
1928,100,3162.7,4442.6
1929,100,3369.4,4453.5
1930,100,3242.3,4460.8
1931,100,3654.2,4473.3
1932,100,3453.9,4474.3
1933,100,2703.5,4487.3
1934,100,2651.4,4495.8
1935,100,3252.7,4495.5
1936,100,3562.7,4504.4
1937,100,3280.9,4514.1
1938,100,2597.0,4512.9
1939,100,3659.0,4530.0
1940,100,2687.6,4541.6
1941,100,3583.5,4551.2
1942,100,3319.3,4558.8
1943,100,3511.5,4574.2
1944,100,3227.7,4594.0
1945,100,2518.9,4599.7
1946,100,3589.9,4611.3
1947,100,2450.1,4663.7
1948,100,3243.6,4663.4
1949,100,3181.5,4688.2
1950,100,3293.0,4721.5
1951,100,3486.0,4728.8
1952,100,3206.8,4757.4
1953,100,3429.7,4786.6
1954,100,3293.7,4789.7
1955,100,3598.2,4827.6
1956,100,2574.1,4852.3
1957,100,3386.3,4853.0
1958,100,2674.3,4860.2
1959,100,3013.8,4861.0
1960,100,3433.4,4907.3
1961,100,3677.3,4922.9
1962,100,2987.9,4956.5
1963,100,3716.0,4983.0
1964,100,2547.1,5148.8
1965,100,3699.0,5162.7
1966,100,3480.4,5175.6
1967,100,3641.7,5227.0
1968,100,2480.4,5262.6
1969,100,2558.1,5280.3
1970,100,3662.4,5289.7
1971,100,3442.4,5302.1
1972,100,3595.0,5305.0
1973,100,2528.9,3715.5
1974,100,2619.3,3722.0
1975,100,2727.9,3741.9
1976,100,2689.0,4048.0
1977,100,2750.8,4101.2
1978,100,2758.4,4186.0
1979,100,2832.4,4211.3
1980,100,2668.9,4245.3
1981,100,2867.1,4273.7
1982,100,2614.6,4344.7
1983,100,2310.2,4420.1
1984,100,2946.5,4428.7
1985,100,2899.4,4457.4
1986,100,2405.7,4497.8
1987,100,2868.1,4514.0
1988,100,2438.4,4552.0
1989,100,2601.6,4579.9
1990,100,2820.4,4597.7
1991,100,3446.4,4598.4
1992,100,3373.2,4618.1
1993,100,3516.5,4634.1
1994,100,3309.9,4641.0
1995,100,3466.8,4665.0
1996,100,2782.8,4666.9
1997,100,3568.8,4672.8
1998,100,3333.3,4691.8
1999,100,3416.2,4711.7
2000,100,3545.4,4711.9
2001,100,3532.0,4779.9
2002,100,3477.8,4846.7
2003,100,3535.3,4864.8
2004,100,3262.6,4898.6
2005,100,3556.4,4900.4
2006,100,2777.7,4897.1
2007,100,2683.4,4921.1
2008,100,3166.8,4922.7
2009,100,3618.3,4930.7
2010,100,3224.4,4942.3
2011,100,3378.5,4949.5
2012,100,3233.9,4996.6
2013,100,3492.6,5011.9
2014,100,3106.8,5055.3
2015,100,3227.5,5070.8
2016,100,3245.7,5115.7
2017,100,3042.0,5140.8
2018,100,3299.2,5152.7
2019,100,2318.7,4203.0
2020,100,2431.9,4227.8
2021,100,2773.1,4281.2
2022,100,2691.2,4304.5
2023,100,2712.9,4350.8
2024,100,2934.2,4352.8
2025,100,2783.8,4350.5
2026,100,2552.3,4365.8
2027,100,3060.9,4362.3
2028,100,3002.8,4401.9
2029,100,2837.6,4416.5
2030,100,2631.6,4430.0
2031,100,2758.4,4442.5
2032,100,2515.6,4562.6
2033,100,2750.1,4588.9
2034,100,2460.4,4598.4
2035,100,2672.2,4606.1
2036,100,3377.1,4666.5
2037,100,2727.2,4702.6
2038,100,2296.3,4718.9
2039,100,2809.3,4784.5
2040,100,2720.6,4801.7
2041,100,2848.4,4928.1
2042,100,2819.7,4987.6
2043,100,2374.6,4987.6
2044,100,2307.8,4991.7
2045,100,2248.1,4997.0
2046,100,2371.0,5039.3
2047,100,2639.3,5051.7
2048,100,2810.1,5058.9
2049,100,2722.0,5082.6
2050,100,3326.6,4881.7
