{
"num_panel": 2,
"orientation": "horizontal", 

"annotation_set": {
	"num_annot": 1,
	"annot_1": {
		"file": "test.tsne.coord.txt",
		"name": "cell.type.unsup"
	}
},

"map_1": {
	"type": "PanelPhysical",
	"maxBound": 4096,
	"id": 1,
	"annot": "cell.type.unsup",
	"tile": "nissl",
	"dir_polyA": "imapr26.4",
	"dir_nissl": "imapr26.0",
	"dir_dapi": "imapr26.7",
	"gene_map": "10k.genes/gene.map",
	"segmentation_map": "segmentation.to.cell.centroid.map.txt",
	"segmentation": "roi.stitched.pos.all.cells.txt",
	"dir_gene_expression": "10k.genes",
	"gene_list": "gene.list.10k",
	"map_height": "500px"
},

"map_2": {
	"type": "PanelTsne",
	"maxBound": 500,
	"id": 2,
	"file_tsne": "coord.txt",
	"annot": "cell.type.unsup",
	"map_height": "500px"
},

"interact_1": ["map_1", "map_2"]
}

