1
1
1
2
1
2
1
2
1
1
1
1
3
1
1
2
1
1
3
1
1
2
10
2
1
2
1
1
1
1
1
1
1
1
10
2
5
10
6
5
2
5
5
10
5
3
2
7
2
3
5
1
1
7
1
1
1
1
8
2
1
2
1
1
1
3
1
1
1
8
1
1
1
1
1
1
1
3
1
1
1
1
1
1
1
2
10
1
1
1
1
1
1
2
1
1
1
1
1
5
1
1
1
1
7
7
2
8
1
2
1
1
1
2
1
10
10
5
8
8
1
8
8
7
8
10
8
8
8
8
8
8
8
8
9
8
5
8
9
8
8
8
1
8
8
7
2
9
8
8
2
8
8
8
10
10
8
8
8
5
8
8
8
8
8
8
9
10
8
8
5
8
8
8
8
8
2
10
8
8
8
8
8
8
8
8
8
8
8
8
8
8
5
8
8
8
8
10
2
8
8
5
8
2
8
10
8
8
8
8
8
8
10
8
6
8
9
8
9
2
10
8
1
8
8
8
10
9
9
9
9
9
6
1
9
9
8
9
8
10
9
9
9
9
5
2
8
9
6
9
9
9
10
9
8
2
5
9
9
9
2
2
9
10
2
10
2
2
2
9
7
9
6
9
2
8
6
9
2
9
9
10
5
9
9
9
6
5
9
10
8
9
9
2
9
9
10
5
9
9
9
7
2
9
9
7
9
9
9
2
9
9
9
2
10
7
6
7
10
6
6
6
6
6
6
5
6
10
6
2
3
7
6
3
6
5
9
6
6
5
7
6
9
6
3
6
5
6
6
10
6
6
6
10
6
6
1
5
2
9
10
10
6
6
6
6
7
9
9
6
6
6
2
9
6
6
6
6
6
10
6
2
6
6
10
6
6
6
8
6
6
9
6
2
9
6
9
9
10
6
9
6
6
10
6
6
6
10
6
7
9
2
9
6
9
2
6
6
6
6
6
2
7
5
7
7
5
7
7
10
7
7
7
7
6
6
6
10
6
6
6
6
10
6
6
6
7
7
7
6
3
6
7
6
6
10
6
8
5
5
10
10
6
6
6
6
6
6
7
6
6
6
3
6
6
6
6
6
9
9
2
3
6
10
2
7
5
7
6
7
5
6
6
6
6
2
5
6
6
6
6
6
6
6
5
6
7
6
2
7
6
10
6
6
6
8
6
6
6
6
9
6
6
