{
"tiff_width": 2048,
"tiff_height": 2048,
"positions": [0,1,2,3,4],
"stain_ids": [0,4,7],

"new_task_1":{
"task": "extract_roi_zip",
"priority": 0,
"input": "RoiSet_Pos[POSITION]_real.zip",
"output": "roi/roi.pos[POSITION].all.txt",
"tmp": "/tmp/pos[POSITION]",
"positions": [0,1,2,3,4]
},

"new_task_2":{
"task": "decouple_tiff",
"priority": 1,
"input": "segmentation_staining_1_MMStack_Pos[POSITION].ome.tif",
"output_prefix": "Pos[POSITION]",
"positions": [0,1,2,3,4]
},

"new_task_3":{
"task": "rotate_image",
"priority": 2,
"input": "Pos[POSITION].[STAINID].tif",
"output": "Pos[POSITION].[STAINID].rotate.tif",
"angle": "left90",
"positions": [0,1,2,3,4],
"stain_ids": [0,4,7]
},

"new_task_4":{
"task": "stitch_image",
"priority": 3,
"input": "Pos[POSITION].[STAINID].rotate.tif",
"output": "Pos.ch[STAINID].joined.tif",
"offset": "offset.txt",
"positions": [0,1,2,3,4],
"stain_ids": [0,4,7]
},

"new_task_5":{
"task": "rotate_coord",
"priority": 4,
"input": "Cell_centroids.csv",
"output": "Cell_centroids_rotate.csv",
"angle": "left90"
},

"new_task_6":{
"task": "stitch_coord",
"priority": 5,
"input": "Cell_centroids_rotate.csv",
"output": "cell.centroid.stitched.pos.all.cells.txt",
"offset": "offset.txt",
"positions": [0,1,2,3,4]
},

"new_task_7":{
"task": "rotate_segmentation_roi",
"priority": 6,
"input": "roi/roi.pos[POSITION].all.txt",
"output": "roi/roi.pos[POSITION].rotate.all.txt",
"angle": "left90",
"positions": [0,1,2,3,4]
},

"new_task_8":{
"task": "stitch_segmentation_roi",
"priority": 7,
"input": "roi/roi.pos[POSITION].rotate.all.txt",
"output": "roi.stitched.pos.all.cells.txt",
"offset": "offset.txt",
"positions": [0,1,2,3,4]
},

"new_task_9":{
"task": "align_segmentation_and_cell_centroid",
"priority": 8,
"input_segmentation": "roi.stitched.pos.all.cells.txt",
"input_cell_centroid": "cell.centroid.stitched.pos.all.cells.txt",
"output": "segmentation.to.cell.centroid.map.txt"
},

"new_task_10":{
"task": "tiling_image",
"priority": 9,
"input": "Pos.ch[STAINID].joined.tif",
"output_dir": "imapr26.[STAINID]",
"zoom": 6,
"stain_ids": [0,4,7]
},

"new_task_11":{
"task": "prepare_gene_expression",
"priority": 10,
"input": "cortex_expression_zscore.csv",
"output_dir": "10k.genes",
"csv_sep": ",",
"csv_header": 0,
"csv_index_col": 0,
"num_genes_per_file": 100
}

}

