8
8
8
5
8
5
8
5
8
8
8
8
9
8
8
5
8
8
9
8
8
5
1
5
8
5
8
8
8
8
8
8
8
8
1
5
6
1
3
6
5
6
6
1
6
9
5
6
5
9
6
8
8
8
8
8
8
8
8
5
8
5
8
8
8
9
8
8
8
8
8
8
8
8
8
8
8
9
8
8
8
8
8
8
8
5
1
8
8
8
8
8
8
5
8
8
8
8
8
6
8
8
8
8
2
5
5
8
8
5
8
8
8
5
8
1
1
6
8
8
8
8
8
5
7
1
8
8
8
8
8
8
8
8
7
8
6
8
7
8
8
8
8
8
8
8
5
8
8
8
5
8
8
8
1
1
8
8
8
6
8
8
8
8
8
8
8
1
8
8
6
8
8
8
8
8
5
1
8
8
8
8
8
8
8
8
8
8
8
8
8
8
6
8
8
8
8
1
5
8
8
6
8
5
8
1
8
8
8
8
8
8
1
8
9
8
7
8
8
5
1
8
8
8
8
8
1
7
7
7
7
7
7
8
8
7
8
7
7
1
7
7
7
7
6
5
7
7
7
7
7
7
1
7
7
7
6
7
7
7
5
7
7
1
5
1
5
5
5
7
2
7
7
7
5
7
7
7
5
7
7
1
6
7
7
7
7
6
7
6
7
7
7
5
7
7
1
6
7
7
7
5
5
7
7
2
7
7
7
5
7
7
7
5
1
5
7
5
1
7
7
7
7
7
7
6
7
1
7
5
9
2
7
9
7
6
7
7
7
6
2
8
7
7
9
7
6
7
7
1
7
7
7
1
7
7
8
6
5
7
1
1
7
7
7
7
2
8
7
7
7
7
5
7
7
7
7
7
7
1
7
5
7
7
1
7
7
7
7
7
7
7
8
5
7
8
8
8
1
7
7
7
7
1
7
7
7
1
7
2
7
5
7
7
7
5
7
7
7
7
7
5
2
6
2
2
6
2
2
1
2
2
2
2
7
7
7
1
7
7
7
7
1
7
7
7
5
2
2
7
9
7
2
7
7
1
7
7
6
6
1
1
7
7
7
7
7
7
5
7
7
7
9
7
7
7
7
7
7
7
5
9
7
1
5
2
6
2
7
2
6
7
7
7
7
5
6
7
7
7
7
4
7
7
6
7
2
7
5
2
7
6
7
7
7
8
7
7
7
7
7
7
7
